2015/27/04 17:27:11 |  LogIn: Aikka1234 logged in
2015/27/04 17:27:17 |  LogIn: Aikka1234 logged in
2015/27/04 20:55:16 |  LogIn: Aikka1234 logged in
2015/28/04 10:46:40 |  LogIn: Aikka1234 logged in
2015/28/04 13:09:55 |  LogIn: Aikka1234 logged in
2015/28/04 14:30:59 |  LogIn: Aikka1234 logged in
2015/28/04 17:05:03 |  LogIn: Aikka1234 logged in
2015/04/05 08:28:31 |  LogIn: yasminesaadawi logged in
2015/19/05 13:40:09 |  LogIn: Aikka1234 logged in
2015/19/05 14:59:58 |  LogIn: Aikka1234 logged in
2015/23/05 02:43:43 |  LogIn: Aikka1234 logged in
2015/23/05 02:44:12 |  LogIn: Aikka1234 logged in
2015/23/05 05:39:10 |  LogIn: Aikka1234 logged in
2015/23/05 05:49:28 |  LogIn: Aikka1234 logged in
2015/23/05 06:01:30 |  LogIn: Aikka1234 logged in
2015/23/05 06:28:53 |  LogIn: Aikka1234 logged in
